1000000, 675, 1319, 1193, 
2000000, 487, 5371, 1944, 
5000000, 1103, 3665, 5583, 
8000000, 1893, 5042, 6513, 
10000000, 3205, 6605, 7181, 
20000000, 4546, 10735, 13252, 
50000000, 13982, 25142, 27648, 
80000000, 58554, 39557, 53715, 
100000000, 21027, 48913, 51060, 
200000000, 44519, 96310, 2.8749e+05, 
500000000, 1.1604e+05, 4.433e+05, 2.3815e+05, 
